<?xml version="1.0" standalone="no"?>
<!DOCTYPE svg PUBLIC "-//W3C//DTD SVG 20010904//EN"
 "http://www.w3.org/TR/2001/REC-SVG-20010904/DTD/svg10.dtd">
<svg version="1.0" xmlns="http://www.w3.org/2000/svg"
 width="1000.000000pt" height="1000.000000pt" viewBox="0 0 1000.000000 1000.000000"
 preserveAspectRatio="xMidYMid meet">
<metadata>
Created by potrace 1.11, written by Peter Selinger 2001-2013
</metadata>
<g transform="translate(0.000000,1000.000000) scale(0.100000,-0.100000)"
fill="#000000" stroke="none">
<path d="M0 5000 l0 -5000 5000 0 5000 0 0 5000 0 5000 -5000 0 -5000 0 0
-5000z m5255 2160 c370 -41 682 -187 938 -438 228 -223 384 -518 452 -857 31
-154 32 -173 3 -180 -72 -15 -690 -107 -694 -102 -3 3 -14 47 -25 98 -78 377
-244 636 -484 754 -131 65 -200 79 -385 79 -186 1 -269 -18 -425 -94 -196 -95
-360 -262 -468 -476 -70 -138 -135 -389 -157 -604 -13 -134 -13 -504 0 -640
64 -644 331 -1047 787 -1187 80 -24 103 -27 258 -27 149 -1 180 2 249 22 273
79 468 286 576 610 32 96 75 286 85 374 7 52 9 57 29 53 11 -3 176 -36 365
-75 189 -38 346 -71 348 -73 2 -3 -4 -53 -12 -113 -114 -764 -601 -1297 -1304
-1426 -169 -31 -505 -31 -675 0 -228 42 -450 132 -646 263 -135 90 -345 301
-436 439 -257 387 -379 915 -361 1565 12 445 86 775 243 1085 237 468 693 825
1179 924 171 35 390 45 560 26z"/>
</g>
</svg>
